{
	"titulo": "San ceferino",
	"metaetiquetas": [
		{
			"charset": "utf8"
		},{
			"http-equiv": "Content-Type",
			"content": "text/html; charset=UTF-8"
		},{
			"name": "viewport",
			"content": "width=device-width, initial-scale=1, minimum-scale=1.0, maximum-scale=1.0"
		}
	]
}
